Chapter 10 Categorical Predictors | Ling 411 - Fall 2023
…
Bu (çok) tatlı.

Just the verb kok “smell” seems to have a negative connotation. On the other hand, the adjective tatlı “tasty” whose root tat “taste” and the suffix -lı simply means “with” has a positive connotation. While this is simply a hunch, we don’t have enough evidence for Turkish to claim that this is in fact true. Let’s hope that someone will run an experiment for Turkish and report the results. For now, we’ll use the senses_valence dataset from Bodo Winter’s book.

Let us read in the dataset and see what it looks like.

#Import tidyverse
library(tidyverse)
#Read in the data
data <- read_csv('data/winter_2016_senses_valence.csv')
#print the head to see what it looks like
data

## # A tibble: 405 × 3
##    Word      Modality   Val
##    <chr>     <chr>    <dbl>
##  1 abrasive  Touch     5.40
##  2 absorbent Sight     5.88
##  3 aching    Touch     5.23
##  4 acidic    Taste     5.54
##  5 acrid     Smell     5.17
##  6 adhesive  Touch     5.24
##  7 alcoholic Taste     5.56
##  8 alive     Sight     6.04
##  9 amber     Sight     5.72
## 10 angular   Sight     5.48
## # ℹ 395 more rows
…
acrid
smell
0

Let us do this by hand before training a model.

# Create a new column with 0 for smell and 1 for taste
senses_data <- mutate(senses_data, treatment = ifelse(Modality == 'Taste', 1, 0))

senses_data

## # A tibble: 72 × 4
##    Word       Modality   Val treatment
##    <chr>      <chr>    <dbl>     <dbl>
##  1 acidic     Taste     5.54         1
##  2 acrid      Smell     5.17         0
##  3 alcoholic  Taste     5.56         1
##  4 antiseptic Smell     5.51         0
##  5 aromatic   Smell     5.95         0
##  6 astringent Taste     5.96         1
##  7 barbecued  Taste     6.05         1
##  8 beery      Taste     6.07         1
##  9 bitter     Taste     5.12         1
## 10 bland      Taste     5.75         1
## # ℹ 62 more rows
…
# See the predictions
predict(model_2, preds)

##        1        2 
## 5.808124 5.471012

10.3.2 Sum Coding

Sum coding is a slightly different coding mechanism. Instead of using 0 and 1 as the coding scheme, we use -1 and 1 as the coding scheme. This has the benefit of having the mean of the means as the intercept. To be able to use R’s coding functionality, we should convert our categorical values as factors.

senses_data<- mutate(senses_data, Modality = factor(Modality))

senses_data

## # A tibble: 72 × 4
##    Word       Modality   Val treatment
##    <chr>      <fct>    <dbl>     <dbl>
##  1 acidic     Taste     5.54         1
##  2 acrid      Smell     5.17         0
##  3 alcoholic  Taste     5.56         1
##  4 antiseptic Smell     5.51         0
##  5 aromatic   Smell     5.95         0
##  6 astringent Taste     5.96         1
##  7 barbecued  Taste     6.05         1
##  8 beery      Taste     6.07         1
##  9 bitter     Taste     5.12         1
## 10 bland      Taste     5.75         1
## # ℹ 62 more rows
…
