Chapter 6 Descriptive Statistics | desc_stats
…
Figure 6.1: A histogram of the average amount of sleep by animal (the sleep_total_h variable). As you might expect, the larger the margin the less frequently you tend to see it.

6.1 Distributions

Let us see a couple more data examples to get a sense of what data might look like in the wild. First, let us generate some random data with a uniform distribution using the runif() function.

uniform <- as_tibble(runif(120, min = 1, max = 6))

uniform

## # A tibble: 120 × 1
##    value
##    <dbl>
##  1  5.54
##  2  1.19
##  3  4.04
##  4  1.11
##  5  3.99
##  6  3.59
##  7  4.96
##  8  3.11
##  9  5.85
## 10  2.26
## # … with 110 more rows
…
