Chapter 11 Effect Size & Significance | Ling 411 - Fall 2022
…
s = standard deviation of all the data (group 1 and group 2)

Let us try Cohen’s d for the Smell and Taste data.

First, load the data and select the relevant data using the filter function.

#Import tidyverse
library(tidyverse)
#Read in the data
data <- read_csv('data/winter_2016_senses_valence.csv')
#print the head to see what it looks like
senses_data <- filter(data, Modality %in% c('Taste', 'Smell'))
data

## # A tibble: 405 × 3
##    Word      Modality   Val
##    <chr>     <chr>    <dbl>
##  1 abrasive  Touch     5.40
##  2 absorbent Sight     5.88
##  3 aching    Touch     5.23
##  4 acidic    Taste     5.54
##  5 acrid     Smell     5.17
##  6 adhesive  Touch     5.24
##  7 alcoholic Taste     5.56
##  8 alive     Sight     6.04
##  9 amber     Sight     5.72
## 10 angular   Sight     5.48
## # … with 395 more rows
…
