Chapter 9 Linear & Non-Linear Transformations | Ling 411 - Fall 2024
…
9.2 Scaling and Standardizing in R

In the previous sections, we calculated the centered values and the standardized values by hand. R has a dedicated function scale() which does both.

library(tidyverse)
cab_fares <- read_csv('data/cab_fares.csv')
cab_fares

## # A tibble: 1,000 × 3
##    distance_km n_bridges taxi_fare
##          <dbl>     <dbl>     <dbl>
##  1          20         3     180. 
##  2          10        10     202. 
##  3          15         4     158. 
##  4          19         5     196. 
##  5          18         1     137. 
##  6          16         7     201. 
##  7          14         8     209. 
##  8          18         8     226. 
##  9           5         2      79.6
## 10           9         2      94.2
## # ℹ 990 more rows

# only centering
cab_fares <- mutate(cab_fares, distance_c = scale(distance_km, scale = FALSE))

# centering and standardizing
cab_fares <- mutate(cab_fares, distance_c_z = scale(distance_km))

#printing the dataframe
cab_fares

## # A tibble: 1,000 × 5
##    distance_km n_bridges taxi_fare distance_c[,1] distance_c_z[,1]
##          <dbl>     <dbl>     <dbl>          <dbl>            <dbl>
##  1          20         3     180.            8.39            1.61 
##  2          10        10     202.           -1.61           -0.309
##  3          15         4     158.            3.39            0.651
##  4          19         5     196.            7.39            1.42 
##  5          18         1     137.            6.39            1.23 
##  6          16         7     201.            4.39            0.843
##  7          14         8     209.            2.39            0.459
##  8          18         8     226.            6.39            1.23 
##  9           5         2      79.6          -6.61           -1.27 
## 10           9         2      94.2          -2.61           -0.501
## # ℹ 990 more rows
…
Figure 9.1: Skewness. Image by Robert Keim

Many types of data in linguistics have a positive skew. For example, frequency data is highly skewed. Let us take a look at a frequency data for 50K words from Turkish. (I got this data from some corpus but I don’t remember where. Apologies for not being able to provide credit.)

turkish_freq <- read_csv("data/tr_50k_freq.csv", col_names = c("word", "frequency"))

turkish_freq

## # A tibble: 50,000 × 2
##    word  frequency
##    <chr>     <dbl>
##  1 bir     6034903
##  2 bu      3529532
##  3 ne      2550646
##  4 ve      2544175
##  5 için    1795506
##  6 mi      1713472
##  7 de      1647867
##  8 o       1639226
##  9 ben     1597395
## 10 çok     1572658
## # ℹ 49,990 more rows
…
