Chapter 12 Logistic Regression | Ling 411 - Fall 2023
…
library(tidyverse)
data <- read_csv('~/ling_411/data/speech_errors.csv')

## Rows: 40 Columns: 2
## ── Column specification ────────────────────────────────────────────────────────
## Delimiter: ","
## dbl (2): BAC, speech_error
## 
## ℹ Use `spec()` to retrieve the full column specification for this data.
## ℹ Specify the column types or set `show_col_types = FALSE` to quiet this message.

data

## # A tibble: 40 × 2
##       BAC speech_error
##     <dbl>        <dbl>
##  1 0.0737            0
##  2 0.0973            0
##  3 0.234             0
##  4 0.138             1
##  5 0.0933            0
##  6 0.262             1
##  7 0.357             0
##  8 0.237             1
##  9 0.352             1
## 10 0.379             1
## # ℹ 30 more rows
…
Not bad. Using logistic regression we can:

understand the relationship between variables where the outcome is categorical (two categories)

make predictions

Now that we have the model coefficients, we can predict some values and plot them.

BAC_vals <- seq(0, 0.4, 0.01)
y_preds <- plogis(intercept + slope * BAC_vals)

mdl_preds <- tibble(BAC_vals, y_preds)
mdl_preds

## # A tibble: 41 × 2
##    BAC_vals y_preds
##       <dbl>   <dbl>
##  1     0     0.0255
##  2     0.01  0.0298
##  3     0.02  0.0349
##  4     0.03  0.0407
##  5     0.04  0.0475
##  6     0.05  0.0553
##  7     0.06  0.0644
##  8     0.07  0.0748
##  9     0.08  0.0867
## 10     0.09  0.100 
## # ℹ 31 more rows
…
