Chapter 13 Modeling Poisson Distribution | Ling 411 - Fall 2023
…
library(tidyverse)
nettle <- read_csv('/Users/umit/ling_411/data/nettle_1999_climate.csv')

## Rows: 74 Columns: 5
## ── Column specification ────────────────────────────────────────────────────────
## Delimiter: ","
## chr (1): Country
## dbl (4): Population, Area, MGS, Langs
## 
## ℹ Use `spec()` to retrieve the full column specification for this data.
## ℹ Specify the column types or set `show_col_types = FALSE` to quiet this message.

nettle

## # A tibble: 74 × 5
##    Country      Population  Area   MGS Langs
##    <chr>             <dbl> <dbl> <dbl> <dbl>
##  1 Algeria            4.41  6.38  6.6     18
##  2 Angola             4.01  6.1   6.22    42
##  3 Australia          4.24  6.89  6      234
##  4 Bangladesh         5.07  5.16  7.4     37
##  5 Benin              3.69  5.05  7.14    52
##  6 Bolivia            3.88  6.04  6.92    38
##  7 Botswana           3.13  5.76  4.6     27
##  8 Brazil             5.19  6.93  9.71   209
##  9 Burkina Faso       3.97  5.44  5.17    75
## 10 CAR                3.5   5.79  8.08    94
## # ℹ 64 more rows
…
