Chapter 3 Tidyverse | 02-tidyverse
…
Let us first read in some data. For this, we will read in the nettle climate data from Bodo Winter’s book.

nettle <- read.csv('/Users/umit/materials/data/nettle_1999_climate.csv')

Next, let us turn our nettle dataset into a tibble. A tibble is a dataframe with some improved capabilities. All we have to do is to call the as.tibble on our nettle variable and assign it back to the nettle variable. Make sure your tidyverse is loaded by running library(tidyverse) first.

library(tidyverse)

nettle <- as_tibble(nettle)

Now, you can simply run nettle and it will show the head of your dataframe.

nettle

## # A tibble: 74 × 5
##    Country      Population  Area   MGS Langs
##    <chr>             <dbl> <dbl> <dbl> <int>
##  1 Algeria            4.41  6.38  6.6     18
##  2 Angola             4.01  6.1   6.22    42
##  3 Australia          4.24  6.89  6      234
##  4 Bangladesh         5.07  5.16  7.4     37
##  5 Benin              3.69  5.05  7.14    52
##  6 Bolivia            3.88  6.04  6.92    38
##  7 Botswana           3.13  5.76  4.6     27
##  8 Brazil             5.19  6.93  9.71   209
##  9 Burkina Faso       3.97  5.44  5.17    75
## 10 CAR                3.5   5.79  8.08    94
## # … with 64 more rows
