Chapter 4 Working with Data | 03-tidyverse
…
## Rows: 74 Columns: 5
## ── Column specification ────────────────────────────────────────────────────────
## Delimiter: ","
## chr (1): Country
## dbl (4): Population, Area, MGS, Langs
## 
## ℹ Use `spec()` to retrieve the full column specification for this data.
## ℹ Specify the column types or set `show_col_types = FALSE` to quiet this message.

#Let's print the head of the data to see what it looks like
nettle

## # A tibble: 74 × 5
##    Country      Population  Area   MGS Langs
##    <chr>             <dbl> <dbl> <dbl> <dbl>
##  1 Algeria            4.41  6.38  6.6     18
##  2 Angola             4.01  6.1   6.22    42
##  3 Australia          4.24  6.89  6      234
##  4 Bangladesh         5.07  5.16  7.4     37
##  5 Benin              3.69  5.05  7.14    52
##  6 Bolivia            3.88  6.04  6.92    38
##  7 Botswana           3.13  5.76  4.6     27
##  8 Brazil             5.19  6.93  9.71   209
##  9 Burkina Faso       3.97  5.44  5.17    75
## 10 CAR                3.5   5.79  8.08    94
## # … with 64 more rows
…
R has various data packages you can install and use. Let us install the languageR which has some nice language datasets. Once you install the package and load the library, you can easily use the datasets as tibles. For all the details and available datasets in languageR, you can check the languageR documentation on CRAN.

#Let's load the library
library(languageR)

#We'll use the dativeSimplified dataset, which is documented. Let's see the documentation
?dativeSimplified

#let's use the dativeSimplified data from the languageR 
data <- as_tibble(dativeSimplified)

#Let's print the first few lines of the data
data

## # A tibble: 903 × 5
##    RealizationOfRec Verb  AnimacyOfRec AnimacyOfTheme LengthOfTheme
##    <fct>            <fct> <fct>        <fct>                  <dbl>
##  1 NP               feed  animate      inanimate              2.64 
##  2 NP               give  animate      inanimate              1.10 
##  3 NP               give  animate      inanimate              2.56 
##  4 NP               give  animate      inanimate              1.61 
##  5 NP               offer animate      inanimate              1.10 
##  6 NP               give  animate      inanimate              1.39 
##  7 NP               pay   animate      inanimate              1.39 
##  8 NP               bring animate      inanimate              0    
##  9 NP               teach animate      inanimate              2.40 
## 10 NP               give  animate      inanimate              0.693
## # … with 893 more rows
…
